\contentsline {section}{\numberline {1}Introduction}{1}
\contentsline {section}{\numberline {2}Slash the Backslashes}{3}
\contentsline {subsection}{\numberline {2.1}bsmes}{3}
\contentsline {subsection}{\numberline {2.2}built-ins}{3}
\contentsline {subsection}{\numberline {2.3}bracket words}{4}
\contentsline {subsection}{\numberline {2.4}font prefixes}{5}
\contentsline {section}{\numberline {3}Semiautomatic subscripts and superscripts}{7}
\contentsline {section}{\numberline {4}Macros on the fly}{9}
\contentsline {section}{\numberline {5}Transparency to ordinary TeX}{10}
