\relax 
\@writefile{toc}{\contentsline {section}{\numberline {1}Introduction}{1}}
\@writefile{toc}{\contentsline {section}{\numberline {2}Slash the Backslashes}{3}}
\newlabel{sec:backslashes}{{2}{3}}
\@writefile{toc}{\contentsline {subsection}{\numberline {2.1}bsmes}{3}}
\@writefile{toc}{\contentsline {subsection}{\numberline {2.2}built-ins}{3}}
\newlabel{subsec:builtins}{{2.2}{3}}
\newlabel{list:bsmes}{{2.1}{4}}
\@writefile{lot}{\contentsline {table}{\numberline {1}{\ignorespaces bsme keywords}}{4}}
\@writefile{toc}{\contentsline {subsection}{\numberline {2.3}bracket words}{4}}
\newlabel{tab:builtins}{{2.2}{5}}
\@writefile{lot}{\contentsline {table}{\numberline {2}{\ignorespaces built-in keywords}}{5}}
\@writefile{toc}{\contentsline {subsection}{\numberline {2.4}font prefixes}{5}}
\@writefile{lot}{\contentsline {table}{\numberline {3}{\ignorespaces Bracket word constructions}}{6}}
\newlabel{tab:fontprefixes}{{2.4}{7}}
\@writefile{lot}{\contentsline {table}{\numberline {4}{\ignorespaces Font prefixes}}{7}}
\@writefile{toc}{\contentsline {section}{\numberline {3}Semiautomatic subscripts and superscripts}{7}}
\newlabel{sec:semiautomatic}{{3}{7}}
\newlabel{tab:subscriptexamples}{{3}{7}}
\@writefile{lot}{\contentsline {table}{\numberline {5}{\ignorespaces Semiautomatic subscript and superscript examples}}{7}}
\@writefile{toc}{\contentsline {section}{\numberline {4}Macros on the fly}{9}}
\newlabel{sec:macros}{{4}{9}}
\@writefile{toc}{\contentsline {section}{\numberline {5}Transparency to ordinary TeX}{10}}
